Enhancing QTL mapping power with allelic series inferences
…
---

# What are allele effects?

---

# TIMBR Methods for inferring allelic series in QTL studies [@crouse2020inferring]

```
## # A tibble: 40 x 14
##    lodindex lodcolumn chr      pos   lod cc_peak_bayes_l… cc_peak_bayes_u…
##       <int> <chr>     <fct>  <dbl> <dbl>            <dbl>            <dbl>
##  1        1 spleenCFU 2     174.    7.04             3.18            182. 
##  2        1 spleenCFU 7      30.4   5.59             3.14            145. 
##  3        1 spleenCFU 11     95.9   5.76            87.5              98.6
##  4        2 spleenCEQ 2     178.    9.15             3.18            182. 
##  5        2 spleenCEQ 7      25.3   5.88             3.14            145. 
##  6        2 spleenCEQ 8       3.21  6.15             3.21            129. 
##  7        2 spleenCEQ 10     90.5   5.89            79.8              90.5
##  8        2 spleenCEQ 11    106.    5.21            88.9             117. 
##  9        3 lungCFU   3      10.0   5.69             3.32             36.7
## 10        3 lungCFU   7      37.8   7.47             3.14            145. 
## # … with 30 more rows, and 7 more variables: marker_index <int>, timbr <list>,
## #   most_probable_series <chr>, most_probable_series_prob <dbl>,
## #   second_most_probable_series <chr>, second_most_probable_series_prob <dbl>,
## #   top_pairs <list>
```
…
